0001860: Pari: Default chosen scroll bar is appearing when action button is clicked to select feedback.

Description:When action button is clicked in the list of interview, a default scroll bar is appearing in the page.
Tags	No tags attached.



style="padding-bottom: 2px;"

style="padding:10px 1px 14px 1px;"

 style="padding:10px 0px 14px 0px;"

btnFeedback.Attributes.Add("onclick", "EditModal('" + Url.ToString() + "','680px','360px'); return false;");



10px Padding on all sides

padding:10px;
0px padding on top/bottom and 10px padding on right/left

padding:0px 10px;
for a combination of sides, you can do this

padding-right:10px;
padding-left:10px;
padding-top:10px;
padding-bottom:10px
You can also use the below shortcut to make top/bottom have different values while keeping right/left the same

padding: 20px 10px 30px;
Now you know everything their is to know about padding.





MemberInterviewSchedule page
correct  coding


<div class="container" style="padding:0px 10px;" >
                                            <button class="btn btn-mini" type="button">
                                                <i class="icon icon-cog"></i><span class="caret"></span>
                                            </button>
                                        </div>



<ul class="dropdown-menu" style="margin-left: -120px; margin-top: -49px;">


<th style="text-align: center;" id="thAction" runat="server" width="50px">
                                        Actions
                                    </th>











update GenericLookup set name='Accounts, Finance & Commercial' where id='1154';

update GenericLookup set name='Legal & Secretarial' where id='1168';

update GenericLookup set name='Sales & Marketing' where id='1184';

update GenericLookup set name='Software Development & Solution' where id='1185';