Added


3696	Fresher			3167	Cybage Inc. USA
3650	Documentation		3168	Documentation
4701	ALM	                3178	Engineering
4702	Supply Chain Management	3178	Engineering
3240	Helpdesk		3169	Information Systems
3220	Marketing	        3174	Marketing
3233	Process	                3181	Process
3652	User Experience		3175	User Experience





removed

2401	Database Developer	2418	Engineering
2409	Web 	                2418	Engineering
2854	Mobile	                2418	Engineering





updated

1)  2430	Helpdesk		2421	Finance                into

    3653	Finance	        	3179	Finance

2)  2860	Fresher	        	2388	Management             into

    3676	Manager	        	3170	Management

3)  2854	Mobile	        	2413	Quality                into

    4683	Enterprise Mobility	3177	Quality

   
    






