USE [Digilant]
GO

DECLARE	@return_value int

EXEC	@return_value = [dbo].[Employee_GetPagedByProductivity]
		@StartRowIndex = 0,
		@RowPerPage = 20,
		@WhereClause = NULL,
		@WhereDateClause = N' between Convert(DateTime,''18/11/2014'',103)  And Convert(DateTime,''19/11/2014'',103) ',
		@SortColumn = NULL,
		@SortOrder = N'ASC'

SELECT	'Return Value' = @return_value

GO



INSERT INTO [vitasta].[dbo].[GenericLookup]
           ([Name]
           ,[Description]
           ,[Type]
           ,[SortOrder]
           ,[CreatorId]
           ,[UpdatorId]
           ,[CreateDate]
           ,[UpdateDate])
     VALUES
           ('Any Metro', '',99,0,2,2,getdate(),getdate())




select CreatorId from MemberHiringDetails 

select * from MemberHiringDetails where CreatorId=233

select * from Employee where id=233

select Id  from MemberHiringDetails C 
Join Employee E
where C.CreatorId=E.ID and C.Createdate

